…
Stocks my friend chose:
- Amazon (AMZN)
- Apple (AAPL)
- Microsoft (MSFT)


### Pulling Price Performance Data

```r
(Microsoft <- tq_get("MSFT", get = "stock.prices"))
```

```
## # A tibble: 2,728 × 8
##    symbol date        open  high   low close   volume adjusted
##    <chr>  <date>     <dbl> <dbl> <dbl> <dbl>    <dbl>    <dbl>
##  1 MSFT   2012-01-03  26.5  27.0  26.4  26.8 64731500     21.5
##  2 MSFT   2012-01-04  26.8  27.5  26.8  27.4 80516100     22.0
##  3 MSFT   2012-01-05  27.4  27.7  27.3  27.7 56081400     22.3
##  4 MSFT   2012-01-06  27.5  28.2  27.5  28.1 99455500     22.6
##  5 MSFT   2012-01-09  28.0  28.1  27.7  27.7 59706800     22.3
##  6 MSFT   2012-01-10  27.9  28.2  27.8  27.8 60014400     22.4
##  7 MSFT   2012-01-11  27.4  28.0  27.4  27.7 65582400     22.3
##  8 MSFT   2012-01-12  27.9  28.0  27.6  28   49370800     22.5
##  9 MSFT   2012-01-13  27.9  28.2  27.8  28.2 60196100     22.7
## 10 MSFT   2012-01-17  28.4  28.6  28.2  28.3 72395300     22.7
## # … with 2,718 more rows
```

```r
(Apple <- tq_get("AAPL", get = "stock.prices"))
```

```
## # A tibble: 2,728 × 8
##    symbol date        open  high   low close    volume adjusted
##    <chr>  <date>     <dbl> <dbl> <dbl> <dbl>     <dbl>    <dbl>
##  1 AAPL   2012-01-03  14.6  14.7  14.6  14.7 302220800     12.5
##  2 AAPL   2012-01-04  14.6  14.8  14.6  14.8 260022000     12.6
##  3 AAPL   2012-01-05  14.8  14.9  14.7  14.9 271269600     12.7
##  4 AAPL   2012-01-06  15.0  15.1  15.0  15.1 318292800     12.9
##  5 AAPL   2012-01-09  15.2  15.3  15.0  15.1 394024400     12.9
##  6 AAPL   2012-01-10  15.2  15.2  15.1  15.1 258196400     12.9
##  7 AAPL   2012-01-11  15.1  15.1  15.0  15.1 215084800     12.9
##  8 AAPL   2012-01-12  15.1  15.1  15.0  15.0 212587200     12.8
##  9 AAPL   2012-01-13  15.0  15.0  15.0  15.0 226021600     12.8
## 10 AAPL   2012-01-17  15.2  15.2  15.1  15.2 242897200     13.0
## # … with 2,718 more rows
```

```r
(Amazon <- tq_get("AMZN", get = "stock.prices"))
```

```
## # A tibble: 2,728 × 8
##    symbol date        open  high   low close    volume adjusted
##    <chr>  <date>     <dbl> <dbl> <dbl> <dbl>     <dbl>    <dbl>
##  1 AMZN   2012-01-03  8.79  8.97  8.78  8.95 102216000     8.95
##  2 AMZN   2012-01-04  8.96  9.02  8.80  8.88  84104000     8.88
##  3 AMZN   2012-01-05  8.80  8.91  8.70  8.88  76182000     8.88
##  4 AMZN   2012-01-06  8.90  9.23  8.88  9.13 140168000     9.13
##  5 AMZN   2012-01-09  9.14  9.22  8.85  8.93 101138000     8.93
##  6 AMZN   2012-01-10  9.06  9.12  8.86  8.97  79716000     8.97
##  7 AMZN   2012-01-11  8.98  9.04  8.91  8.94  62054000     8.94
##  8 AMZN   2012-01-12  8.97  8.97  8.79  8.80 107716000     8.80
##  9 AMZN   2012-01-13  8.79  8.94  8.68  8.92  95070000     8.92
## 10 AMZN   2012-01-17  9.01  9.16  8.93  9.08 112890000     9.08
## # … with 2,718 more rows
```

```r
(Adidas <- tq_get("ADDYY", get = "stock.prices"))
```

```
## # A tibble: 2,728 × 8
##    symbol date        open  high   low close volume adjusted
##    <chr>  <date>     <dbl> <dbl> <dbl> <dbl>  <dbl>    <dbl>
##  1 ADDYY  2012-01-03  34.0  34.2  33.9  33.9  18800     29.1
##  2 ADDYY  2012-01-04  33.7  33.8  33.4  33.6   9700     28.9
##  3 ADDYY  2012-01-05  33.4  33.5  33.1  33.4  14300     28.7
##  4 ADDYY  2012-01-06  32.8  33.0  32.5  32.9  42000     28.2
##  5 ADDYY  2012-01-09  33.5  34.0  33.4  33.9  34800     29.1
##  6 ADDYY  2012-01-10  34.3  34.3  34.1  34.2  20800     29.4
##  7 ADDYY  2012-01-11  34.0  34.0  33.6  34.0  15100     29.2
##  8 ADDYY  2012-01-12  34.5  34.7  34.2  34.5  24500     29.6
##  9 ADDYY  2012-01-13  33.5  33.5  32.9  33.4  39800     28.7
## 10 ADDYY  2012-01-17  34.3  35.0  34.3  34.7  21700     29.8
## # … with 2,718 more rows
```

```r
(Nike <- tq_get("NKE", get = "stock.prices"))
```

```
## # A tibble: 2,728 × 8
##    symbol date        open  high   low close   volume adjusted
##    <chr>  <date>     <dbl> <dbl> <dbl> <dbl>    <dbl>    <dbl>
##  1 NKE    2012-01-03  24.3  24.5  24.2  24.2 10944400     21.4
##  2 NKE    2012-01-04  24.2  24.7  24.1  24.6  9440800     21.7
##  3 NKE    2012-01-05  24.4  24.6  24.2  24.5  8393200     21.7
##  4 NKE    2012-01-06  24.5  24.6  24.4  24.5  7760800     21.7
##  5 NKE    2012-01-09  24.5  24.7  24.4  24.6 10045600     21.8
##  6 NKE    2012-01-10  24.7  24.7  24.4  24.6  9812400     21.8
##  7 NKE    2012-01-11  24.6  24.6  24.4  24.5  7002800     21.7
##  8 NKE    2012-01-12  24.6  24.8  24.4  24.8  7516400     21.9
##  9 NKE    2012-01-13  24.6  24.7  24.5  24.6  6534000     21.7
## 10 NKE    2012-01-17  24.7  24.9  24.5  24.8  8242000     22.0
## # … with 2,718 more rows
```

```r
(UnderArmour <- tq_get("UAA", get = "stock.prices"))
```

```
## # A tibble: 2,728 × 8
##    symbol date        open  high   low close   volume adjusted
##    <chr>  <date>     <dbl> <dbl> <dbl> <dbl>    <dbl>    <dbl>
##  1 UAA    2012-01-03  9.23  9.38  9.00  9.02  7126400     9.02
##  2 UAA    2012-01-04  9.01  9.17  8.93  9.08  8602400     9.08
##  3 UAA    2012-01-05  9.04  9.16  8.78  9.16 10757600     9.16
##  4 UAA    2012-01-06  9.15  9.36  9.08  9.27  8214400     9.27
##  5 UAA    2012-01-09  9.29  9.39  9.12  9.30  8222400     9.30
##  6 UAA    2012-01-10  9.44  9.46  9.26  9.39  8084000     9.39
##  7 UAA    2012-01-11  9.34  9.48  9.32  9.47  6409600     9.47
##  8 UAA    2012-01-12  9.53  9.73  9.45  9.71 12467200     9.71
##  9 UAA    2012-01-13  9.65  9.80  9.58  9.65  7448800     9.65
## 10 UAA    2012-01-17  9.72  9.83  9.49  9.53  8024000     9.53
## # … with 2,718 more rows
```
…
